# 06일

### dplyr, select를 이용하여 특정 타입의 변수만 추출하기

```
data <- starwars
data %>% 
  select(where(is.list))
```

```r
## # A tibble: 87 x 3
##    films     vehicles  starships
##    <list>    <list>    <list>   
##  1 <chr [5]> <chr [2]> <chr [2]>
##  2 <chr [6]> <chr [0]> <chr [0]>
##  3 <chr [7]> <chr [0]> <chr [0]>
##  4 <chr [4]> <chr [0]> <chr [1]>
##  5 <chr [5]> <chr [1]> <chr [0]>
##  6 <chr [3]> <chr [0]> <chr [0]>
##  7 <chr [3]> <chr [0]> <chr [0]>
##  8 <chr [1]> <chr [0]> <chr [0]>
##  9 <chr [1]> <chr [0]> <chr [1]>
## 10 <chr [6]> <chr [1]> <chr [5]>
## # ... with 77 more rows
```

```r
data %>% 
  select(!where(is.list))
```

```
## # A tibble: 87 x 11
##    name        height  mass hair_~1 skin_~2 eye_c~3 birth~4 sex   gender homew~5
##    <chr>        <int> <dbl> <chr>   <chr>   <chr>     <dbl> <chr> <chr>  <chr>  
##  1 Luke Skywa~    172    77 blond   fair    blue       19   male  mascu~ Tatooi~
##  2 C-3PO          167    75 <NA>    gold    yellow    112   none  mascu~ Tatooi~
##  3 R2-D2           96    32 <NA>    white,~ red        33   none  mascu~ Naboo  
##  4 Darth Vader    202   136 none    white   yellow     41.9 male  mascu~ Tatooi~
##  5 Leia Organa    150    49 brown   light   brown      19   fema~ femin~ Aldera~
##  6 Owen Lars      178   120 brown,~ light   blue       52   male  mascu~ Tatooi~
##  7 Beru White~    165    75 brown   light   blue       47   fema~ femin~ Tatooi~
##  8 R5-D4           97    32 <NA>    white,~ red        NA   none  mascu~ Tatooi~
##  9 Biggs Dark~    183    84 black   light   brown      24   male  mascu~ Tatooi~
## 10 Obi-Wan Ke~    182    77 auburn~ fair    blue-g~    57   male  mascu~ Stewjon
## # ... with 77 more rows, 1 more variable: species <chr>, and abbreviated
## #   variable names 1: hair_color, 2: skin_color, 3: eye_color, 4: birth_year,
## #   5: homeworld
```
