…
```
data1 %>% 
  group_by(대여소번호, 대여소명) %>% 
  summarise(총이용건수 = sum(이용건수), 
            평균이동거리 = mean(이동거리.M., na.rm = T)/총이용건수) %>% 
  arrange(-총이용건수, -평균이동거리)
```

```
## # A tibble: 2,638 x 4
## # Groups:   대여소번호 [2,638]
##    대여소번호 대여소명                               총이용건수 평균이동거리
##         <int> <chr>                                       <int>        <dbl>
##  1       2715 "2715.마곡나루역 2번 출구 "                 16494         22.0
##  2       4217 "4217. 한강공원 망원나들목"                 15412         61.6
##  3        502 "502. 뚝섬유원지역 1번출구 앞"              14120         55.8
##  4       2102 "2102. 봉림교 교통섬"                       13719         48.2
##  5        207 "207. 여의나루역 1번출구 앞"                13574         66.7
##  6       1210 "1210. 롯데월드타워(잠실역2번출구 쪽)"      11777         30.0
##  7       1911 "1911. 구로디지털단지역 앞"                 10369         49.5
##  8       2177 "2177. 신대방역 2번 출구"                   10006         41.5
##  9       2701 "2701. 마곡나루역 5번출구 뒤편"              9718         17.2
## 10       1153 "1153. 발산역 1번, 9번 인근 대여소"          9451         24.2
## # ... with 2,628 more rows
```

```
data1 %>% 
  group_by(대여소번호) %>% 
  select(대여소번호, 대여소명, 이용건수, 이동거리.M.) %>% 
  mutate(평균이동거리 = 이동거리.M./이용건수) %>% 
  filter(평균이동거리 > 10000) %>% 
  arrange(-평균이동거리)
```

```
## # A tibble: 2,559 x 5
## # Groups:   대여소번호 [1,406]
##    대여소번호 대여소명                               이용건수 이동거리~1 평균~2
##         <int> <chr>                                     <int>      <dbl>  <dbl>
##  1       2343 "2343. 세곡사거리 대왕파출소 앞"              1     53080  53080 
##  2       1269 "1269. 리센츠아파트 "                         2     98970  49485 
##  3       2140 "2140. 신림1교 교차로"                        2     91280  45640 
##  4       4483 "4483. 잠실나들목4"                           5    204229. 40846.
##  5       1659 "1659. 중계동 을지중학교"                     2     77419. 38709.
##  6       5752 "5752. 풍납백제문화공원 옆 인근"              1     37240  37240 
##  7        483 "483.남산타운아파트 버스정류장"               1     36910  36910 
##  8       4319 "4319. 삼성전자R&D어린이집 뒤"                1     36428. 36428.
##  9       4251 "4251. 공덕역 경의선숲길 커뮤니티센터"        2     72347  36174.
## 10       3627 "3627. 압구정나들목"                          1     35350  35350 
## # ... with 2,549 more rows, and abbreviated variable names 1: 이동거리.M.,
## #   2: 평균이동거리
```
…
