…
```r
library(fastDummies)
dummies <- dummy_cols(palmerpenguins::penguins, 
                      select_columns = "species",
                      remove_first_dummy = T,
                      remove_selected_columns = T)
dummies %>% select(starts_with("species"))
```

```
## # A tibble: 344 x 2
##    species_Chinstrap species_Gentoo
##                <int>          <int>
##  1                 0              0
##  2                 0              0
##  3                 0              0
##  4                 0              0
##  5                 0              0
##  6                 0              0
##  7                 0              0
##  8                 0              0
##  9                 0              0
## 10                 0              0
## # ... with 334 more rows
```
